gapr_Vignette
…
dat <- load_gapr()
# !!!
# this function somehow works when only this block is executed but shows error 
# "not exported by gapr", when knitting, even though in the NAMESPACE file 
# it can be seen that it is exported.
# It' weird that it works sometime but not always
summarize_gapr(dat, lifeExp, 50, country, filter_func = (`<`))
#> Adding missing grouping variables: `country`
#> data :
#> # A tibble: 82 × 4
#>    country      lifeExp_mean  pop_mean gdpPercap_mean
#>    <chr>               <dbl>     <dbl>          <dbl>
#>  1 Afghanistan          37.5 15823715.           803.
#>  2 Algeria              45.7 10183776.          2671.
#>  3 Angola               37.9  7309390.          3607.
#>  4 Bangladesh           42.3 61516850.           674.
#>  5 Benin                43.7  2362065.          1020.
#>  6 Bolivia              43.5  3659102.          2511.
#>  7 Botswana             48.0   849098           4258.
#>  8 Burkina Faso         41.6  5596946.           749.
#>  9 Burundi              44.8  4651608.           472.
#> 10 Cambodia             40.2  6248212.           462.
#> # … with 72 more rows
…
